Advanced Web Scraping: CSS Selectors, Dynamic Content, Bash & Regex
…
Solve the beginner regexp crosswords at https://regexcrossword.com/challenges/beginner.

IMDB top films Example

Let’s tackle something a little trickier, extracting the top 250 movies from the internet movie database (IMDb):

url <- "https://web.archive.org/web/20220201012049/https://www.imdb.com/chart/top/"
html <- read_html(url)
table <- html |> 
  html_element("table") |> 
  html_table()

table

# A tibble: 250 × 5
   ``    `Rank & Title`                        `IMDb Rating` `Your Rating` ``   
   <lgl> <chr>                                         <dbl> <chr>         <lgl>
 1 NA    "1.\n      The Shawshank Redemption\…           9.2 "12345678910… NA   
 2 NA    "2.\n      The Godfather\n        (1…           9.1 "12345678910… NA   
 3 NA    "3.\n      The Godfather: Part II\n …           9   "12345678910… NA   
 4 NA    "4.\n      The Dark Knight\n        …           9   "12345678910… NA   
 5 NA    "5.\n      12 Angry Men\n        (19…           8.9 "12345678910… NA   
 6 NA    "6.\n      Schindler's List\n       …           8.9 "12345678910… NA   
 7 NA    "7.\n      The Lord of the Rings: Th…           8.9 "12345678910… NA   
 8 NA    "8.\n      Pulp Fiction\n        (19…           8.8 "12345678910… NA   
 9 NA    "9.\n      The Good, the Bad and the…           8.8 "12345678910… NA   
10 NA    "10.\n      The Lord of the Rings: T…           8.8 "12345678910… NA   
# ℹ 240 more rows
…
