Lab 3
…
source_agreement <- table_rows %>% 
  html_elements(".commtext") %>% 
  html_text2() %>% 
  str_remove("^Community\\s+")

data = tibble(source_titles, source_links, source_bias,
              source_agree, source_disagree, source_agree_ratio,
              source_agreement)
data

# A tibble: 59 × 7
   source_titles           source_links source_bias source_agree source_disagree
   <chr>                   <chr>        <chr>              <dbl>           <dbl>
 1 ABC News (Online)       https://www… https://ww…        48959           24350
 2 AlterNet                https://www… https://ww…        18006            4527
 3 Associated Press        https://www… https://ww…        42955           36080
 4 Associated Press Fact … https://www… https://ww…         8196           10297
 5 Axios                   https://www… https://ww…        10462           11708
 6 BBC News                https://www… https://ww…        39530           35857
 7 Bloomberg               https://www… https://ww…        20014           25141
 8 Breitbart News          https://www… https://ww…        47476           13050
 9 Business Insider        https://www… https://ww…         7911           10050
10 BuzzFeed News           https://www… https://ww…        30753           10488
# ℹ 49 more rows
# ℹ 2 more variables: source_agree_ratio <dbl>, source_agreement <chr>
…
